DOE Project
…
library(tidyr)
dat2<-pivot_longer(data = dat, c(RED,YELLOW,STONE))
colnames(dat2)<- c("Type_of_Balls", "Observations")
dat2$Type_of_Balls<-as.factor(dat2$Type_of_Balls)
print(dat2) 

## # A tibble: 36 x 2
##    Type_of_Balls Observations
##    <fct>                <dbl>
##  1 RED                     49
##  2 YELLOW                  94
##  3 STONE                   44
##  4 RED                     53
##  5 YELLOW                  86
##  6 STONE                   58
##  7 RED                     35
##  8 YELLOW                  49
##  9 STONE                   92
## 10 RED                     54
## # ... with 26 more rows
…
Red<-c(dat$RED)^-1
Yellow<-c(dat$YELLOW)^-1
Stone<-c(dat$STONE)^-1

dat3<-cbind.data.frame(Red, Yellow, Stone)

library(tidyr)
dat4<-pivot_longer(data = dat3, c(Red,Yellow,Stone))
colnames(dat4)<- c("Type_of_Balls", "Observations")
dat4$Type_of_Balls<-as.factor(dat4$Type_of_Balls)
print(dat4)

## # A tibble: 36 x 2
##    Type_of_Balls Observations
##    <fct>                <dbl>
##  1 Red                 0.0204
##  2 Yellow              0.0106
##  3 Stone               0.0227
##  4 Red                 0.0189
##  5 Yellow              0.0116
##  6 Stone               0.0172
##  7 Red                 0.0286
##  8 Yellow              0.0204
##  9 Stone               0.0109
## 10 Red                 0.0185
## # ... with 26 more rows
…
